%YAML 1.1
%TAG !u! tag:unity3d.com,2011:
--- !u!78 &1
TagManager:
  serializedVersion: 2
  tags:
  - guest
  - tileSwitcher
  - PathPiece
  - Grid
  - pHandler
  - sHandler
  - FreakedGuest
  - GuestSpawn
  - Stars
  - DyingElder
  - FreakChild
  - Tower
  - wall
  - wallGroup
  - base
  - insideWallGroup
  - Exit
  - FreakAdult
  - Tile
  - GameMenu
  - notADoor
  - door
  - room
  - wallCluster
  - Entrance
  - Kill
  - block
  - RangeSystem
  - Atlas
  - TowerPanel
  - Cleanup Panel
  - Room
  - Contract Panel
  - Contract Viewer
  - RoomPlaceCanvas
  layers:
  - Default
  - TransparentFX
  - Ignore Raycast
  - 
  - Water
  - UI
  - 
  - 
  - noWalls
  - invisible
  - wall
  - guest
  - Grid X 1
  - 
  - Grid X 5
  - Tower
  - Room
  - 
  - 
  - 
  - 
  - 
  - 
  - 
  - 
  - 
  - 
  - 
  - 
  - 
  - 
  - 
  m_SortingLayers:
  - name: Default
    uniqueID: 0
    locked: 0
  - name: Layer1
    uniqueID: 2721288799
    locked: 0
  - name: Layer2
    uniqueID: 3603256893
    locked: 0
